Cleaning Messy Cirrhosis Data using Tidyverse
…
Viewing the Data Set

tidy_cirrhosis_data

# A tibble: 32 × 5
   cirrho_type sex    age      surv_id count
   <chr>       <chr>  <fct>    <fct>   <int>
 1 Hepatitis C Male   Under 18 No          0
 2 Hepatitis C Male   Under 18 Yes         2
 3 Hepatitis C Male   Adult    No         84
 4 Hepatitis C Male   Adult    Yes       311
 5 Hepatitis C Female Under 18 No          0
 6 Hepatitis C Female Under 18 Yes         1
 7 Hepatitis C Female Adult    No         37
 8 Hepatitis C Female Adult    Yes       189
 9 Hepatitis B Male   Under 18 No          3
10 Hepatitis B Male   Under 18 Yes         9
# ℹ 22 more rows
…
